…
### Post-hoc test

Run Dunn test

``` r
(kruskal_compound_D_posthoc <- compound_D %>%
      drop_na(rel_abund, treatment) %>%        # Remove NA values first
      group_by(id) %>%                         # Group by 'id'
      dunn_test(rel_abund ~ treatment,
                p.adjust.method = "BH"))
```

    # A tibble: 36 × 10
       id     .y.   group1 group2    n1    n2 statistic       p   p.adj p.adj.signif
     * <chr>  <chr> <chr>  <chr>  <int> <int>     <dbl>   <dbl>   <dbl> <chr>       
     1 Cyani… rel_… FJ     MEF        6     5     -2.79 5.20e-3 1.56e-2 *           
     2 Cyani… rel_… FJ     MEF+SS     6     5     -4.13 3.70e-5 2.22e-4 ***         
     3 Cyani… rel_… FJ     MT         6     5     -1.46 1.43e-1 2.03e-1 ns          
     4 Cyani… rel_… MEF    MEF+SS     5     5     -1.27 2.03e-1 2.03e-1 ns          
     5 Cyani… rel_… MEF    MT         5     5      1.27 2.03e-1 2.03e-1 ns          
     6 Cyani… rel_… MEF+SS MT         5     5      2.55 1.08e-2 2.17e-2 *           
     7 Cyani… rel_… FJ     MEF        6     5     -2.79 5.20e-3 1.56e-2 *           
     8 Cyani… rel_… FJ     MEF+SS     6     5     -4.13 3.70e-5 2.22e-4 ***         
     9 Cyani… rel_… FJ     MT         6     5     -1.46 1.43e-1 2.03e-1 ns          
    10 Cyani… rel_… MEF    MEF+SS     5     5     -1.27 2.03e-1 2.03e-1 ns          
    # ℹ 26 more rows
…
    `summarise()` has grouped output by 'id'. You can override using the `.groups`
    argument.

``` r
# Display the result
max_relabund
```

    # A tibble: 24 × 3
       id                        treatment max_tot_relabund
       <chr>                     <chr>                <dbl>
     1 Cyanidin hexoside         FJ                    24.5
     2 Cyanidin hexoside         MEF                   23.5
     3 Cyanidin hexoside         MEF+SS                22.3
     4 Cyanidin hexoside         MT                    24.1
     5 Cyanidin malonyl hexoside FJ                    20.1
     6 Cyanidin malonyl hexoside MEF                   18.3
     7 Cyanidin malonyl hexoside MEF+SS                17.0
     8 Cyanidin malonyl hexoside MT                    19.1
     9 Cyanidin rutinoside       FJ                    21.6
    10 Cyanidin rutinoside       MEF                   21.1
    # ℹ 14 more rows
…
# Print Tukey HSD results
table_results <- results %>%
  select(id, tukey_summary) %>%
  unnest(tukey_summary) %>%
  arrange(adj.p.value)%>%
  print()
```

    # A tibble: 36 × 8
    # Groups:   id [6]
       id          term  contrast null.value estimate conf.low conf.high adj.p.value
       <chr>       <chr> <chr>         <dbl>    <dbl>    <dbl>     <dbl>       <dbl>
     1 Cyanidin m… trea… MEF+SS-…          0    -3.28   -3.70      -2.86    5.53e-13
     2 Cyanidin r… trea… MEF+SS-…          0    -1.50   -1.74      -1.27    8.67e-12
     3 Cyanidin h… trea… MEF+SS-…          0    -2.29   -2.69      -1.88    6.18e-11
     4 Cyanidin m… trea… MT-MEF+…          0     2.36    1.92       2.80    1.37e-10
     5 N-Caffeoyl… trea… MEF+SS-…          0    -4.71   -5.59      -3.82    1.52e-10
     6 p-Coumaroy… trea… MEF+SS-…          0    -4.42   -5.27      -3.58    2.05e-10
     7 N-Caffeoyl… trea… MT-MEF+…          0     4.62    3.70       5.54    4.09e-10
     8 N-Caffeoyl… trea… MEF-FJ            0    -4.38   -5.26      -3.50    4.77e-10
     9 Cyanidin r… trea… MT-MEF+…          0     1.22    0.972      1.47    5.30e-10
    10 p-Coumaroy… trea… MT-MEF+…          0     4.30    3.42       5.19    6.21e-10
    # ℹ 26 more rows
…
