…
- Data should be a data frame containing the abundances of features in
  each sample, one row per sample, each feature in a separate column
- Features should be a data frame containing information about the
  features, namely feature name (should be the same as the column name
  in data), mass and retention time

``` r
# change to results to numeric
data_notame <- data_notame %>%
  mutate(across(-sample_name, as.numeric))

tibble(data_notame)
```

    # A tibble: 33 × 3,290
       sample_name `100.0394_0.4966` `100.0748_0.3036` `100.112_1.8034`
       <chr>                   <dbl>             <dbl>            <dbl>
     1 FJ-5                   48308.           103357.           82656.
     2 FJ-3                   48308.            61879.           93318.
     3 MT-4                   48308.            84937.           63983.
     4 FJ-4                   48308.            70759.           87603.
     5 FJ-6                   48308.            87988.           85029.
     6 FJ-1                   48308.            69969.           73609.
     7 MT-3                   48308.            72474.           70601.
     8 FJ-2                   48308.            73910.           61373.
     9 MT-2                   48308.            71959.           77667.
    10 MT-5                   48308.            50754.           79754.
    # ℹ 23 more rows
    # ℹ 3,286 more variables: `100.1121_1.5856` <dbl>, `101.0232_1.6779` <dbl>,
    #   `101.0233_0.4368` <dbl>, `101.0233_1.5452` <dbl>, `101.0234_0.8025` <dbl>,
    #   `102.0372_0.693` <dbl>, `102.0549_0.5532` <dbl>, `102.055_3.1638` <dbl>,
    #   `102.0914_1.9157` <dbl>, `102.1276_2.1675` <dbl>, `103.039_1.1011` <dbl>,
    #   `103.0391_0.8388` <dbl>, `103.0542_1.6945` <dbl>, `104.0528_0.5517` <dbl>,
    #   `104.0698_0.3039` <dbl>, `104.0706_0.4179` <dbl>, `104.107_5.7303` <dbl>, …
…
## Assessing data quality

Let’s make sure that our data is of good quality.

### Untransformed data

First we are going to convert the type of some of the columns to match
what we want (e.g., run order converted to numeric, treatment to factor)

``` r
tibble(metab_imputed_clustered_long)
```

    # A tibble: 81,411 × 8
       sample_name treatment run_order sample_or_qc    mz    rt mz_rt      rel_abund
       <chr>       <chr>         <dbl> <chr>        <dbl> <dbl> <chr>          <dbl>
     1 FJ-5        FJ               73 Sample        100. 1.80  100.112_1…    82656.
     2 FJ-5        FJ               73 Sample        100. 1.59  100.1121_…     5830.
     3 FJ-5        FJ               73 Sample        101. 0.437 101.0233_…   483515.
     4 FJ-5        FJ               73 Sample        101. 1.55  101.0233_…    53398.
     5 FJ-5        FJ               73 Sample        101. 0.802 101.0234_…   154369.
     6 FJ-5        FJ               73 Sample        102. 0.693 102.0372_…    75240.
     7 FJ-5        FJ               73 Sample        102. 1.92  102.0914_…    20643.
     8 FJ-5        FJ               73 Sample        102. 2.17  102.1276_…   697850.
     9 FJ-5        FJ               73 Sample        103. 1.10  103.039_1…   203268.
    10 FJ-5        FJ               73 Sample        103. 0.839 103.0391_…   265538.
    # ℹ 81,401 more rows

``` r
# make run_order numeric
metab_imputed_clustered_long$run_order <- as.numeric(metab_imputed_clustered_long$run_order)

# make treatment and sample_or_qc a factor (i.e., categorical)
metab_imputed_clustered_long$treatment <- as.factor(metab_imputed_clustered_long$treatment)
metab_imputed_clustered_long$sample_or_qc <- as.factor(metab_imputed_clustered_long$sample_or_qc)

# did it work?
tibble(metab_imputed_clustered_long)
```

    # A tibble: 81,411 × 8
       sample_name treatment run_order sample_or_qc    mz    rt mz_rt      rel_abund
       <chr>       <fct>         <dbl> <fct>        <dbl> <dbl> <chr>          <dbl>
     1 FJ-5        FJ               73 Sample        100. 1.80  100.112_1…    82656.
     2 FJ-5        FJ               73 Sample        100. 1.59  100.1121_…     5830.
     3 FJ-5        FJ               73 Sample        101. 0.437 101.0233_…   483515.
     4 FJ-5        FJ               73 Sample        101. 1.55  101.0233_…    53398.
     5 FJ-5        FJ               73 Sample        101. 0.802 101.0234_…   154369.
     6 FJ-5        FJ               73 Sample        102. 0.693 102.0372_…    75240.
     7 FJ-5        FJ               73 Sample        102. 1.92  102.0914_…    20643.
     8 FJ-5        FJ               73 Sample        102. 2.17  102.1276_…   697850.
     9 FJ-5        FJ               73 Sample        103. 1.10  103.039_1…   203268.
    10 FJ-5        FJ               73 Sample        103. 0.839 103.0391_…   265538.
    # ℹ 81,401 more rows
…
