…
``` r
dim(metadata)
```

    [1] 67  6

First we are going to convert the type of some of the columns to match
what we want (e.g., run order converted to numeric, treatment to
factor).

``` r
tibble(feature_table_long)
```

    # A tibble: 81,411 × 8
       sample_name treatment run_order sample_or_qc    mz    rt mz_rt      rel_abund
       <chr>       <chr>         <dbl> <chr>        <dbl> <dbl> <chr>          <dbl>
     1 FJ-5        FJ               73 Sample        100. 1.80  100.112_1…    82656.
     2 FJ-5        FJ               73 Sample        100. 1.59  100.1121_…     5830.
     3 FJ-5        FJ               73 Sample        101. 0.437 101.0233_…   483515.
     4 FJ-5        FJ               73 Sample        101. 1.55  101.0233_…    53398.
     5 FJ-5        FJ               73 Sample        101. 0.802 101.0234_…   154369.
     6 FJ-5        FJ               73 Sample        102. 0.693 102.0372_…    75240.
     7 FJ-5        FJ               73 Sample        102. 1.92  102.0914_…    20643.
     8 FJ-5        FJ               73 Sample        102. 2.17  102.1276_…   697850.
     9 FJ-5        FJ               73 Sample        103. 1.10  103.039_1…   203268.
    10 FJ-5        FJ               73 Sample        103. 0.839 103.0391_…   265538.
    # ℹ 81,401 more rows

``` r
# make run_order numeric
feature_table_long$run_order <- as.numeric(feature_table_long$run_order)

# make treatment and sample_or_qc a factor (i.e., categorical)
feature_table_long$treatment <- as.factor(feature_table_long$treatment)
feature_table_long$sample_or_qc <- as.factor(feature_table_long$sample_or_qc)

# did it work?
tibble(feature_table_long)
```

    # A tibble: 81,411 × 8
       sample_name treatment run_order sample_or_qc    mz    rt mz_rt      rel_abund
       <chr>       <fct>         <dbl> <fct>        <dbl> <dbl> <chr>          <dbl>
     1 FJ-5        FJ               73 Sample        100. 1.80  100.112_1…    82656.
     2 FJ-5        FJ               73 Sample        100. 1.59  100.1121_…     5830.
     3 FJ-5        FJ               73 Sample        101. 0.437 101.0233_…   483515.
     4 FJ-5        FJ               73 Sample        101. 1.55  101.0233_…    53398.
     5 FJ-5        FJ               73 Sample        101. 0.802 101.0234_…   154369.
     6 FJ-5        FJ               73 Sample        102. 0.693 102.0372_…    75240.
     7 FJ-5        FJ               73 Sample        102. 1.92  102.0914_…    20643.
     8 FJ-5        FJ               73 Sample        102. 2.17  102.1276_…   697850.
     9 FJ-5        FJ               73 Sample        103. 1.10  103.039_1…   203268.
    10 FJ-5        FJ               73 Sample        103. 0.839 103.0391_…   265538.
    # ℹ 81,401 more rows
…
