…
``` r
dim(metadata)
```

    [1] 67  6

First we are going to convert the type of some of the columns to match
what we want (e.g., run order converted to numeric, treatment to
factor).

``` r
tibble(feature_table_long)
```

    # A tibble: 75,405 × 8
       sample_name treatment run_order sample_or_qc    mz    rt mz_rt      rel_abund
       <chr>       <chr>         <dbl> <chr>        <dbl> <dbl> <chr>          <dbl>
     1 MT-2        MT               16 Sample        100. 0.898 100.0402_…   114435.
     2 MT-2        MT               16 Sample        101. 0.338 100.9439_…    17707.
     3 MT-2        MT               16 Sample        101. 0.321 101.0222_…   776542.
     4 MT-2        MT               16 Sample        101. 0.478 101.0238_…  1110223.
     5 MT-2        MT               16 Sample        101. 0.477 101.031_0…    86064.
     6 MT-2        MT               16 Sample        103. 0.444 103.003_0…    40976.
     7 MT-2        MT               16 Sample        103. 0.362 103.0384_…   135118.
     8 MT-2        MT               16 Sample        103. 0.354 103.0396_…   172927.
     9 MT-2        MT               16 Sample        103. 0.620 103.0397_…   103613.
    10 MT-2        MT               16 Sample        103. 0.856 103.0399_…   309728.
    # ℹ 75,395 more rows

``` r
# make run_order numeric
feature_table_long$run_order <- as.numeric(feature_table_long$run_order)

# make treatment and sample_or_qc a factor (i.e., categorical)
feature_table_long$treatment <- as.factor(feature_table_long$treatment)
feature_table_long$sample_or_qc <- as.factor(feature_table_long$sample_or_qc)

# did it work?
tibble(feature_table_long)
```

    # A tibble: 75,405 × 8
       sample_name treatment run_order sample_or_qc    mz    rt mz_rt      rel_abund
       <chr>       <fct>         <dbl> <fct>        <dbl> <dbl> <chr>          <dbl>
     1 MT-2        MT               16 Sample        100. 0.898 100.0402_…   114435.
     2 MT-2        MT               16 Sample        101. 0.338 100.9439_…    17707.
     3 MT-2        MT               16 Sample        101. 0.321 101.0222_…   776542.
     4 MT-2        MT               16 Sample        101. 0.478 101.0238_…  1110223.
     5 MT-2        MT               16 Sample        101. 0.477 101.031_0…    86064.
     6 MT-2        MT               16 Sample        103. 0.444 103.003_0…    40976.
     7 MT-2        MT               16 Sample        103. 0.362 103.0384_…   135118.
     8 MT-2        MT               16 Sample        103. 0.354 103.0396_…   172927.
     9 MT-2        MT               16 Sample        103. 0.620 103.0397_…   103613.
    10 MT-2        MT               16 Sample        103. 0.856 103.0399_…   309728.
    # ℹ 75,395 more rows
…
