…
- Data should be a data frame containing the abundances of features in
  each sample, one row per sample, each feature in a separate column
- Features should be a data frame containing information about the
  features, namely feature name (should be the same as the column name
  in data), mass and retention time

``` r
# change to results to numeric
data_notame <- data_notame %>%
  mutate(across(-sample_name, as.numeric))

tibble(data_notame)
```

    # A tibble: 33 × 2,998
       sample_name `100.0402_0.8975` `100.9439_0.3382` `101.0222_0.3207`
       <chr>                   <dbl>             <dbl>             <dbl>
     1 MT-2                  114435.            17707.           776542.
     2 FJ-1                  108284.            17707.           797020.
     3 FJ-3                  120828.            17707.           852630.
     4 MT-5                  107273.            17707.           788416.
     5 MT-4                  103128.            17707.           946535.
     6 FJ-4                  121842.            17707.           388271.
     7 FJ-6                  105976.            17707.           896716.
     8 FJ-5                  126520.            17707.           880653.
     9 MT-6                  115773.            17707.          1012929.
    10 MT-3                  111484.            17707.           966052.
    # ℹ 23 more rows
    # ℹ 2,994 more variables: `101.0238_0.4781` <dbl>, `101.0294_0.3215` <dbl>,
    #   `101.031_0.4766` <dbl>, `103.003_0.4435` <dbl>, `103.0384_0.3623` <dbl>,
    #   `103.0396_0.3544` <dbl>, `103.0397_0.6197` <dbl>, `103.0399_0.8555` <dbl>,
    #   `103.0399_1.01` <dbl>, `107.0348_0.9384` <dbl>, `109.0295_1.8499` <dbl>,
    #   `111.0082_0.5501` <dbl>, `111.0087_0.3485` <dbl>, `111.0087_1.3341` <dbl>,
    #   `111.0087_2.2117` <dbl>, `111.0088_1.9584` <dbl>, …
…
## Assessing data quality

Let’s make sure that our data is of good quality.

### Untransformed data

First we are going to convert the type of some of the columns to match
what we want (e.g., run order converted to numeric, treatment to
factor).

``` r
tibble(metab_imputed_clustered_long)
```

    # A tibble: 75,405 × 8
       sample_name treatment run_order sample_or_qc    mz    rt mz_rt      rel_abund
       <chr>       <chr>         <dbl> <chr>        <dbl> <dbl> <chr>          <dbl>
     1 MT-2        MT               16 Sample        100. 0.898 100.0402_…   114435.
     2 MT-2        MT               16 Sample        101. 0.338 100.9439_…    17707.
     3 MT-2        MT               16 Sample        101. 0.321 101.0222_…   776542.
     4 MT-2        MT               16 Sample        101. 0.478 101.0238_…  1110223.
     5 MT-2        MT               16 Sample        101. 0.477 101.031_0…    86064.
     6 MT-2        MT               16 Sample        103. 0.444 103.003_0…    40976.
     7 MT-2        MT               16 Sample        103. 0.362 103.0384_…   135118.
     8 MT-2        MT               16 Sample        103. 0.354 103.0396_…   172927.
     9 MT-2        MT               16 Sample        103. 0.620 103.0397_…   103613.
    10 MT-2        MT               16 Sample        103. 0.856 103.0399_…   309728.
    # ℹ 75,395 more rows

``` r
# make run_order numeric
metab_imputed_clustered_long$run_order <- as.numeric(metab_imputed_clustered_long$run_order)

# make treatment and sample_or_qc a factor (i.e., categorical)
metab_imputed_clustered_long$treatment <- as.factor(metab_imputed_clustered_long$treatment)
metab_imputed_clustered_long$sample_or_qc <- as.factor(metab_imputed_clustered_long$sample_or_qc)

# did it work?
tibble(metab_imputed_clustered_long)
```

    # A tibble: 75,405 × 8
       sample_name treatment run_order sample_or_qc    mz    rt mz_rt      rel_abund
       <chr>       <fct>         <dbl> <fct>        <dbl> <dbl> <chr>          <dbl>
     1 MT-2        MT               16 Sample        100. 0.898 100.0402_…   114435.
     2 MT-2        MT               16 Sample        101. 0.338 100.9439_…    17707.
     3 MT-2        MT               16 Sample        101. 0.321 101.0222_…   776542.
     4 MT-2        MT               16 Sample        101. 0.478 101.0238_…  1110223.
     5 MT-2        MT               16 Sample        101. 0.477 101.031_0…    86064.
     6 MT-2        MT               16 Sample        103. 0.444 103.003_0…    40976.
     7 MT-2        MT               16 Sample        103. 0.362 103.0384_…   135118.
     8 MT-2        MT               16 Sample        103. 0.354 103.0396_…   172927.
     9 MT-2        MT               16 Sample        103. 0.620 103.0397_…   103613.
    10 MT-2        MT               16 Sample        103. 0.856 103.0399_…   309728.
    # ℹ 75,395 more rows
…
