…
### Post-hoc test

Run Dunn test

``` r
(kruskal_compound_A_posthoc <- compound_A %>%
      drop_na(rel_abund, treatment) %>%        # Remove NA values first
      group_by(id) %>%                         # Group by 'id'
      dunn_test(rel_abund ~ treatment,
                p.adjust.method = "BH"))
```

    # A tibble: 36 × 10
       id     .y.   group1 group2    n1    n2 statistic       p   p.adj p.adj.signif
     * <chr>  <chr> <chr>  <chr>  <int> <int>     <dbl>   <dbl>   <dbl> <chr>       
     1 2,4,6… rel_… FJ     MEF        6     5     3.15  1.64e-3 4.91e-3 **          
     2 2,4,6… rel_… FJ     MEF+SS     6     5     1.82  6.90e-2 1.03e-1 ns          
     3 2,4,6… rel_… FJ     MT         6     5    -0.683 4.95e-1 4.95e-1 ns          
     4 2,4,6… rel_… MEF    MEF+SS     5     5    -1.27  2.03e-1 2.43e-1 ns          
     5 2,4,6… rel_… MEF    MT         5     5    -3.67  2.43e-4 1.46e-3 **          
     6 2,4,6… rel_… MEF+SS MT         5     5    -2.40  1.66e-2 3.32e-2 *           
     7 3,4-D… rel_… FJ     MEF        6     5     4.07  4.66e-5 2.79e-4 ***         
     8 3,4-D… rel_… FJ     MEF+SS     6     5     2.85  4.40e-3 1.32e-2 *           
     9 3,4-D… rel_… FJ     MT         6     5     1.46  1.43e-1 2.15e-1 ns          
    10 3,4-D… rel_… MEF    MEF+SS     5     5    -1.17  2.41e-1 2.41e-1 ns          
    # ℹ 26 more rows
…
    `summarise()` has grouped output by 'id'. You can override using the `.groups`
    argument.

``` r
# Display the result
max_relabund
```

    # A tibble: 24 × 3
       id                           treatment max_tot_relabund
       <chr>                        <chr>                <dbl>
     1 2,4,6-Trihydroxybenzoic acid FJ                    14.2
     2 2,4,6-Trihydroxybenzoic acid MEF                   18.7
     3 2,4,6-Trihydroxybenzoic acid MEF+SS                17.7
     4 2,4,6-Trihydroxybenzoic acid MT                    14.0
     5 3,4-Dihydroxybenzoic acid    FJ                    18.1
     6 3,4-Dihydroxybenzoic acid    MEF                   21.4
     7 3,4-Dihydroxybenzoic acid    MEF+SS                20.6
     8 3,4-Dihydroxybenzoic acid    MT                    19.1
     9 Caffeic acid                 FJ                    15.9
    10 Caffeic acid                 MEF                   16.8
    # ℹ 14 more rows
…
# Print Tukey HSD results
table_results <- results %>%
  select(id, tukey_summary) %>%
  unnest(tukey_summary) %>%
  arrange(adj.p.value)%>%
  print()
```

    # A tibble: 36 × 8
    # Groups:   id [6]
       id          term  contrast null.value estimate conf.low conf.high adj.p.value
       <chr>       <chr> <chr>         <dbl>    <dbl>    <dbl>     <dbl>       <dbl>
     1 3,4-Dihydr… trea… MEF-FJ            0     2.94     2.63      3.26    1.76e-13
     2 3,4-Dihydr… trea… MEF+SS-…          0     2.49     2.18      2.80    4.27e-13
     3 2,4,6-Trih… trea… MT-MEF            0    -5.15    -5.96     -4.34    8.24e-12
     4 2,4,6-Trih… trea… MEF-FJ            0     4.75     3.97      5.52    1.52e-11
     5 3,4-Dihydr… trea… MT-MEF            0    -1.90    -2.23     -1.58    3.31e-11
     6 Ellagic ac… trea… MT-MEF+…          0     2.57     2.10      3.03    9.00e-11
     7 Ellagic ac… trea… MT-MEF            0     2.47     2.00      2.93    1.74e-10
     8 Gallic acid trea… MEF-FJ            0     3.05     2.43      3.68    6.41e-10
     9 2,4,6-Trih… trea… MT-MEF+…          0    -3.77    -4.58     -2.96    1.25e- 9
    10 Ferulic ac… trea… MT-MEF            0     1.84     1.44      2.24    1.50e- 9
    # ℹ 26 more rows
…
### Post-hoc test

Run Dunn test

``` r
(kruskal_compound_B_posthoc <- compound_B %>%
      drop_na(rel_abund, treatment) %>%        # Remove NA values first
      group_by(id) %>%                         # Group by 'id'
      dunn_test(rel_abund ~ treatment,
                p.adjust.method = "BH"))
```

    # A tibble: 36 × 10
       id     .y.   group1 group2    n1    n2 statistic       p   p.adj p.adj.signif
     * <chr>  <chr> <chr>  <chr>  <int> <int>     <dbl>   <dbl>   <dbl> <chr>       
     1 Epica… rel_… FJ     MEF        6     5   -2.90   3.72e-3 1.12e-2 *           
     2 Epica… rel_… FJ     MEF+SS     6     5   -4.02   5.85e-5 3.51e-4 ***         
     3 Epica… rel_… FJ     MT         6     5   -1.46   1.43e-1 2.03e-1 ns          
     4 Epica… rel_… MEF    MEF+SS     5     5   -1.07   2.85e-1 2.85e-1 ns          
     5 Epica… rel_… MEF    MT         5     5    1.38   1.69e-1 2.03e-1 ns          
     6 Epica… rel_… MEF+SS MT         5     5    2.45   1.44e-2 2.89e-2 *           
     7 Phlor… rel_… FJ     MEF        6     5   -2.10   3.55e-2 5.32e-2 ns          
     8 Phlor… rel_… FJ     MEF+SS     6     5   -2.16   3.11e-2 5.32e-2 ns          
     9 Phlor… rel_… FJ     MT         6     5    1.46   1.43e-1 1.72e-1 ns          
    10 Phlor… rel_… MEF    MEF+SS     5     5   -0.0510 9.59e-1 9.59e-1 ns          
    # ℹ 26 more rows
…
    `summarise()` has grouped output by 'id'. You can override using the `.groups`
    argument.

``` r
# Display the result
max_relabund
```

    # A tibble: 24 × 3
       id          treatment max_tot_relabund
       <chr>       <chr>                <dbl>
     1 Epicatechin FJ                    25.4
     2 Epicatechin MEF                   22.5
     3 Epicatechin MEF+SS                21.4
     4 Epicatechin MT                    24.8
     5 Phloretin   FJ                    17.1
     6 Phloretin   MEF                   16.3
     7 Phloretin   MEF+SS                16.3
     8 Phloretin   MT                    17.6
     9 Phlorhizin  FJ                    24.0
    10 Phlorhizin  MEF                   23.1
    # ℹ 14 more rows
…
# Print Tukey HSD results
table_results <- results %>%
  select(id, tukey_summary) %>%
  unnest(tukey_summary) %>%
  arrange(adj.p.value)%>%
  print()
```

    # A tibble: 36 × 8
    # Groups:   id [6]
       id          term  contrast null.value estimate conf.low conf.high adj.p.value
       <chr>       <chr> <chr>         <dbl>    <dbl>    <dbl>     <dbl>       <dbl>
     1 Procyanidi… trea… MEF+SS-…          0    -3.58    -3.97     -3.20    1.78e-13
     2 Procyanidi… trea… MEF+SS-…          0    -4.33    -4.81     -3.86    1.89e-13
     3 Epicatechin trea… MEF+SS-…          0    -4.40    -5.02     -3.79    1.48e-12
     4 Procyanidi… trea… MT-MEF+…          0     3.39     2.89      3.88    2.76e-12
     5 Procyanidi… trea… MT-MEF+…          0     2.66     2.26      3.06    3.95e-12
     6 Epicatechin trea… MT-MEF+…          0     3.88     3.24      4.52    1.90e-11
     7 Epicatechin trea… MEF-FJ            0    -3.34    -3.95     -2.72    1.10e-10
     8 Procyanidi… trea… MEF-FJ            0    -2.52    -2.99     -2.05    1.56e-10
     9 Procyanidi… trea… MEF-FJ            0    -1.95    -2.33     -1.57    3.00e-10
    10 Phlorhizin  trea… MEF+SS-…          0    -1.68    -2.04     -1.31    1.56e- 9
    # ℹ 26 more rows
…
### Post-hoc test

Run Dunn test

``` r
(kruskal_compound_C_posthoc <- compound_C %>%
      drop_na(rel_abund, treatment) %>%        # Remove NA values first
      group_by(id) %>%                         # Group by 'id'
      dunn_test(rel_abund ~ treatment,
                p.adjust.method = "BH"))
```

    # A tibble: 36 × 10
       id     .y.   group1 group2    n1    n2 statistic       p   p.adj p.adj.signif
     * <chr>  <chr> <chr>  <chr>  <int> <int>     <dbl>   <dbl>   <dbl> <chr>       
     1 5-Caf… rel_… FJ     MEF        6     5    -3.17  1.54e-3 4.62e-3 **          
     2 5-Caf… rel_… FJ     MEF+SS     6     5    -3.75  1.75e-4 1.05e-3 **          
     3 5-Caf… rel_… FJ     MT         6     5    -1.46  1.43e-1 1.72e-1 ns          
     4 5-Caf… rel_… MEF    MEF+SS     5     5    -0.561 5.75e-1 5.75e-1 ns          
     5 5-Caf… rel_… MEF    MT         5     5     1.63  1.03e-1 1.54e-1 ns          
     6 5-Caf… rel_… MEF+SS MT         5     5     2.19  2.84e-2 5.68e-2 ns          
     7 Couma… rel_… FJ     MEF        6     5    -3.02  2.56e-3 7.67e-3 **          
     8 Couma… rel_… FJ     MEF+SS     6     5    -3.81  1.36e-4 8.17e-4 ***         
     9 Couma… rel_… FJ     MT         6     5    -1.37  1.72e-1 2.06e-1 ns          
    10 Couma… rel_… MEF    MEF+SS     5     5    -0.764 4.45e-1 4.45e-1 ns          
    # ℹ 26 more rows
…
    `summarise()` has grouped output by 'id'. You can override using the `.groups`
    argument.

``` r
# Display the result
max_relabund
```

    # A tibble: 24 × 3
       id                    treatment max_tot_relabund
       <chr>                 <chr>                <dbl>
     1 5-Caffeoylquinic acid FJ                    25.7
     2 5-Caffeoylquinic acid MEF                   25.3
     3 5-Caffeoylquinic acid MEF+SS                25.1
     4 5-Caffeoylquinic acid MT                    25.6
     5 Coumaroyl quinic acid FJ                    23.7
     6 Coumaroyl quinic acid MEF                   22.9
     7 Coumaroyl quinic acid MEF+SS                22.3
     8 Coumaroyl quinic acid MT                    23.6
     9 Feruloylquinic acid   FJ                    20.1
    10 Feruloylquinic acid   MEF                   19.6
    # ℹ 14 more rows
…
# Print Tukey HSD results
table_results <- results %>%
  select(id, tukey_summary) %>%
  unnest(tukey_summary) %>%
  arrange(adj.p.value)%>%
  print()
```

    # A tibble: 36 × 8
    # Groups:   id [6]
       id          term  contrast null.value estimate conf.low conf.high adj.p.value
       <chr>       <chr> <chr>         <dbl>    <dbl>    <dbl>     <dbl>       <dbl>
     1 Coumaroyl … trea… MEF+SS-…          0   -1.43    -1.77     -1.10      5.33e-9
     2 Quercetin-… trea… MEF+SS-…          0   -1.18    -1.47     -0.897     7.76e-9
     3 Feruloylqu… trea… MEF+SS-…          0   -1.14    -1.43     -0.850     1.57e-8
     4 Quercetin-… trea… MT-MEF+…          0    1.16     0.856     1.45      2.14e-8
     5 Naringin    trea… MEF+SS-…          0   -0.733   -0.925    -0.540     2.68e-8
     6 Coumaroyl … trea… MT-MEF+…          0    1.32     0.962     1.67      3.75e-8
     7 Feruloylqu… trea… MT-MEF+…          0    1.11     0.806     1.41      4.58e-8
     8 Naringin    trea… MT-MEF+…          0    0.726    0.525     0.927     5.83e-8
     9 Coumaroyl … trea… MEF-FJ            0   -1.06    -1.40     -0.726     4.33e-7
    10 5-Caffeoyl… trea… MEF+SS-…          0   -0.633   -0.835    -0.432     4.37e-7
    # ℹ 26 more rows
…
### Post-hoc test

Run Dunn test

``` r
(kruskal_compound_E_posthoc <- compound_E %>%
      drop_na(rel_abund, treatment) %>%        # Remove NA values first
      group_by(id) %>%                         # Group by 'id'
      dunn_test(rel_abund ~ treatment,
                p.adjust.method = "BH"))
```

    # A tibble: 24 × 10
       id     .y.   group1 group2    n1    n2 statistic       p   p.adj p.adj.signif
     * <chr>  <chr> <chr>  <chr>  <int> <int>     <dbl>   <dbl>   <dbl> <chr>       
     1 2,4,6… rel_… FJ     MEF        6     5    3.15   1.64e-3 0.00491 **          
     2 2,4,6… rel_… FJ     MEF+SS     6     5    1.82   6.90e-2 0.103   ns          
     3 2,4,6… rel_… FJ     MT         6     5   -0.683  4.95e-1 0.495   ns          
     4 2,4,6… rel_… MEF    MEF+SS     5     5   -1.27   2.03e-1 0.243   ns          
     5 2,4,6… rel_… MEF    MT         5     5   -3.67   2.43e-4 0.00146 **          
     6 2,4,6… rel_… MEF+SS MT         5     5   -2.40   1.66e-2 0.0332  *           
     7 2,4,6… rel_… FJ     MEF        6     5    0.0976 9.22e-1 0.922   ns          
     8 2,4,6… rel_… FJ     MEF+SS     6     5   -2.08   3.71e-2 0.0556  ns          
     9 2,4,6… rel_… FJ     MT         6     5    2.17   2.97e-2 0.0556  ns          
    10 2,4,6… rel_… MEF    MEF+SS     5     5   -2.09   3.67e-2 0.0556  ns          
    # ℹ 14 more rows
…
# Print Tukey HSD results
table_results <- results %>%
  select(id, tukey_summary) %>%
  unnest(tukey_summary) %>%
  arrange(adj.p.value)%>%
  print()
```

    # A tibble: 24 × 8
    # Groups:   id [4]
       id          term  contrast null.value estimate conf.low conf.high adj.p.value
       <chr>       <chr> <chr>         <dbl>    <dbl>    <dbl>     <dbl>       <dbl>
     1 3,4-Dihydr… trea… MEF-FJ            0     2.94    2.63       3.26    1.76e-13
     2 3,4-Dihydr… trea… MEF+SS-…          0     2.49    2.18       2.80    4.27e-13
     3 2,4,6-Trih… trea… MT-MEF            0    -5.15   -5.96      -4.34    8.24e-12
     4 2,4,6-Trih… trea… MEF-FJ            0     4.75    3.97       5.52    1.52e-11
     5 3,4-Dihydr… trea… MT-MEF            0    -1.90   -2.23      -1.58    3.31e-11
     6 2,4,6-Trih… trea… MT-MEF+…          0    -3.77   -4.58      -2.96    1.25e- 9
     7 2,4,6-Tryh… trea… MT-MEF+…          0     1.24    0.964      1.52    2.29e- 9
     8 3,4-Dihydr… trea… MT-MEF+…          0    -1.45   -1.78      -1.13    2.48e- 9
     9 2,4,6-Trih… trea… MEF+SS-…          0     3.37    2.59       4.14    3.63e- 9
    10 3,4-Dihydr… trea… MT-FJ             0     1.04    0.730      1.35    1.83e- 7
    # ℹ 14 more rows
…
